// Jest Snapshot v1, https://goo.gl/fbAQLP

exports[`Thumbnail in various rendering render thumbnail snaps 1`] = `
<DocumentFragment>
  <figure
    class="thumbnail"
  >
    <img
      alt="Muhammed Athimannils"
      class="thumbnail__image"
      data-nimg="1"
      decoding="async"
      height="180"
      loading="lazy"
      src="/_next/image?url=%2Fimages%2Fathimannil.jpeg&w=384&q=75"
      srcset="/_next/image?url=%2Fimages%2Fathimannil.jpeg&w=256&q=75 1x, /_next/image?url=%2Fimages%2Fathimannil.jpeg&w=384&q=75 2x"
      style="color: transparent;"
      width="180"
    />
    <figcaption
      class="thumbnail__title"
    >
      Muhammed Athimannils
    </figcaption>
  </figure>
</DocumentFragment>
`;
