<svg xmlns="http://www.w3.org/2000/svg" viewBox="0 0 180 86" height="30">
  <g fill="#6f6f6f">
    <path d="M38.2 45.9c7-4.2 5.7-16.7-7-16.7H3.9C1.8 29.2 0 30.9 0 33v29.5c0 2.1 1.8 3.8 3.9 3.8h23.8c18.9.1 21.3-16.5 10.5-20.4zM14.3 35.1H29c8.4 0 8 9-1.1 9H14.3v-9zm11.8 25.1H14.2V49.9h15.2c8.7 0 8.7 10.3-3.3 10.3z" />
    <path d="M85.2 29.2H45.5c-1.7 0-3.5 1.4-3.5 3.1 0 1.7 1.8 3.1 3.5 3.1h13.2v27.2c0 2.1 1.8 3.8 3.9 3.8h6.2c2.1 0 3.9-1.7 3.9-3.8V35.4h12.6c1.7 0 3.5-1.4 3.5-3.1-.1-1.7-1.9-3.1-3.6-3.1z" />
  </g>
  <linearGradient id="a" gradientUnits="userSpaceOnUse" x1="-3122.501" y1=".739" x2="-3121.501" y2=".739" gradientTransform="matrix(17.4763 0 0 8.3114 54683.84 -.2)">
    <stop offset="0" stop-color="#464646" />
    <stop offset=".001" stop-color="#4b4b4b" />
    <stop offset=".004" stop-color="#525252" />
    <stop offset=".007" stop-color="#575757" />
    <stop offset=".011" stop-color="#5b5b5b" />
    <stop offset=".015" stop-color="#5d5d5d" />
    <stop offset=".022" stop-color="#5e5e5e" />
    <stop offset=".039" stop-color="#5f5f5f" />
    <stop offset=".438" stop-color="#707070" />
  </linearGradient>
  <path class="st0" d="M131.8 2.6c.5 1.4-2.9 4-7.7 5.8-4.8 1.9-9.1 2.3-9.6.9s2.9-4 7.7-5.8c4.7-1.9 9-2.3 9.6-.9z" fill="url(#a)" />
  <radialGradient id="b" cx="-3154.537" cy=".228" r="4.401" gradientTransform="matrix(21.0885 0 0 21.4192 66688.516 19.574)" gradientUnits="userSpaceOnUse">
    <stop offset="0" stop-color="#efefef" />
    <stop offset=".115" stop-color="#e6e6e6" />
    <stop offset=".242" stop-color="#dfdfdf" />
    <stop offset=".373" stop-color="#d9d9d9" />
    <stop offset=".509" stop-color="#d5d5d5" />
    <stop offset=".65" stop-color="#d3d3d3" />
    <stop offset=".809" stop-color="#d2d2d2" />
    <stop offset="1" stop-color="#bcbcbc" />
  </radialGradient>
  <path class="st1" d="M176.5 35.2c-.2 3.3-1.6 5.9-4 7.1-4.6 2.3-11.2-1.6-14.8-8.6-2.2-4.3-2.7-8.8-1.8-12.2.4.4.8.7 1.2 1.1 7.6 7.1 15.2 11.9 19.4 12.6z" fill="url(#b)" />
  <linearGradient id="c" gradientUnits="userSpaceOnUse" x1="-3151.838" y1=".607" x2="-3150.838" y2=".607" gradientTransform="matrix(20.6775 0 0 19.032 65327.742 14.166)">
    <stop offset="0" stop-color="#d2d2d2" />
    <stop offset=".154" stop-color="#cfcfcf" />
    <stop offset=".338" stop-color="#c6c6c6" />
    <stop offset=".539" stop-color="#b9b9b9" />
    <stop offset=".751" stop-color="#a7a7a7" />
    <stop offset=".971" stop-color="#929292" />
    <stop offset="1" stop-color="#8f8f8f" />
  </linearGradient>
  <path class="st2" d="M176.5 35.2c-4.2-.7-11.8-5.5-19.4-12.5-.4-.4-.8-.7-1.2-1.1.6-2.2 1.8-3.8 3.6-4.7 4.6-2.3 11.2 1.6 14.8 8.6 1.7 3.3 2.4 6.7 2.2 9.7z" fill="url(#c)" />
  <linearGradient id="d" gradientUnits="userSpaceOnUse" x1="-3221.889" y1=".747" x2="-3221.613" y2=".235" gradientTransform="matrix(36.9176 0 0 34.2056 119101.906 -.883)">
    <stop offset=".006" stop-color="#7e7e7e" />
    <stop offset=".422" stop-color="#686868" />
    <stop offset=".792" stop-color="#595959" />
    <stop offset="1" stop-color="#535353" />
  </linearGradient>
  <path class="st3" d="M176.5 35.2c.2-3-.5-6.4-2.2-9.8-3.6-7-10.2-10.9-14.8-8.6-1.8.9-3 2.6-3.6 4.7-9.2-8.8-14.8-17.5-12.5-19.9.5-.5 1.4-.7 2.5-.6 16.3 3 29.4 15 33.7 30.6.4 1.3.3 2.3-.3 2.9-.6.8-1.5.9-2.8.7z" fill="url(#d)" />
  <radialGradient id="e" cx="-3205.33" cy=".861" r=".993" gradientTransform="matrix(31.1538 0 0 40.3768 99994.828 25.772)" gradientUnits="userSpaceOnUse">
    <stop offset="0" stop-color="#c9c9c9" />
    <stop offset=".027" stop-color="#c3c3c3" />
    <stop offset=".254" stop-color="#9c9c9c" />
    <stop offset=".471" stop-color="#828282" />
    <stop offset=".674" stop-color="#737373" />
    <stop offset=".856" stop-color="#696969" />
    <stop offset="1" stop-color="#666" />
    <stop offset="1" stop-color="#666" />
    <stop offset="1" stop-color="#666" />
  </radialGradient>
  <path class="st4" d="M137.3 68.1c10.8-.6 19.3-9.4 19.3-20.2 0-11.2-9.1-20.2-20.4-20.2-3.9 0-7.6 1.1-10.8 3 2 2.7 3.9 6 5.6 9.9 3.4 7.8 6.8 18.6 6.3 27.5z" fill="url(#e)" />
  <radialGradient id="f" cx="-3233.518" cy=".314" r="1.093" gradientTransform="matrix(42.5016 0 0 63.8192 137548.094 15.926)" gradientUnits="userSpaceOnUse">
    <stop offset="0" stop-color="#a3a3a3" />
    <stop offset=".089" stop-color="#9d9d9d" />
    <stop offset=".234" stop-color="#909090" />
    <stop offset=".417" stop-color="#7b7b7b" />
    <stop offset=".596" stop-color="#666" />
    <stop offset=".916" stop-color="#414141" />
  </radialGradient>
  <path class="st5" d="M122.1 75.9c3.3-1.2 8.7-2.2 14.5-2.8.2-.7.3-1.4.4-2.2.2-.9.2-1.9.3-2.8h-1.1c-11.3 0-20.4-9.1-20.4-20.2 0-7.3 3.9-13.6 9.6-17.2-4.4-6.2-9-9.6-11.3-10.9-4.1-2.4-10.6-4-14.7 4.1-3 5.7-4.6 12.3-4.6 19.2 0 17 10 31.7 24.5 38.6-3-1.4-4.1-3.2 2.8-5.8z"
  fill="url(#f)" />
  <radialGradient id="g" cx="-3158.193" cy=".197" r="1.545" gradientTransform="matrix(21.5615 0 0 37.3698 68215.5 28.782)" gradientUnits="userSpaceOnUse">
    <stop offset="0" stop-color="#8c8c8c" />
    <stop offset=".445" stop-color="#707070" />
    <stop offset=".81" stop-color="#5f5f5f" />
    <stop offset="1" stop-color="#585858" />
  </radialGradient>
  <path class="st6" d="M115.8 47.9c0 11.1 9.1 20.2 20.4 20.2h1.1c.5-9-2.9-19.7-6.3-27.5-1.7-3.9-3.6-7.1-5.6-9.9-5.7 3.6-9.6 10-9.6 17.2z" fill="url(#g)" />
  <linearGradient id="h" gradientUnits="userSpaceOnUse" x1="-3237.822" y1="1.157" x2="-3237.822" y2=".073" gradientTransform="matrix(44.953 0 0 13.5242 145691.656 70.48)">
    <stop offset="0" stop-color="#4c4c4c" />
    <stop offset=".118" stop-color="#5a5a5a" />
    <stop offset=".289" stop-color="#6c6c6c" />
    <stop offset=".464" stop-color="#7b7b7b" />
    <stop offset=".639" stop-color="#868686" />
    <stop offset=".817" stop-color="#8c8c8c" />
    <stop offset="1" stop-color="#8f8f8f" />
  </linearGradient>
  <path class="st7" d="M157 73c-4.9-.8-13-.6-20.4.1-2.8 12-10.2 11.5-14.4 9.9-1-.4-1.9-.8-2.8-1.2 5.6 2.7 12 4.2 18.7 4.2 9.1 0 17.6-2.8 24.6-7.6 2.6-1.8 3-4-5.7-5.4z" fill="url(#h)" />
  <linearGradient id="i" gradientUnits="userSpaceOnUse" x1="-3142.667" y1="1.05" x2="-3142.436" y2="-.094" gradientTransform="matrix(19.6038 0 0 10.7363 61732.78 71.18)">
    <stop offset="0" stop-color="#4b4b4b" />
    <stop offset=".109" stop-color="#4b4b4b" />
    <stop offset=".211" stop-color="#616161" />
    <stop offset=".309" stop-color="#737373" />
    <stop offset=".4" stop-color="#7f7f7f" />
    <stop offset=".482" stop-color="#878787" />
    <stop offset=".545" stop-color="#8a8a8a" />
    <stop offset="1" stop-color="#a1a1a1" />
  </linearGradient>
  <path class="st8" d="M136.6 73.1c-5.8.6-11.2 1.6-14.5 2.8-6.9 2.5-5.8 4.3-2.8 5.8.9.4 1.9.9 2.9 1.2 4.2 1.8 11.6 2.3 14.4-9.8z" fill="url(#i)" />
</svg>