<svg height="30" viewBox="0 0 218 64" xmlns="http://www.w3.org/2000/svg">
  <title>ucl</title>
  <path d="M69.876 33.04v.19c0 .012-.008.02-.016.02h-.05c-.03 0-.028.023-.028.05 0 .03-.012.188-.122.278-.015.013-.01.05.024.05h.035c.028 0 .03.02.02.034a.334.334 0 0 0-.013.097v.086c0 .016-.003.03-.018.03h-.018s-.01-.002-.01.01v4.433l.063.064a.02.02 0 0 1 .007.015v.074c0 .006.002.013.005.016.004.004.01.006.018.006h.055c.008 0 .016.01.016.018v.112h.002v.463h.62v1.057h.62v1.07l-16.604-.003v-1.068h.622v-1.058h.62V38.514c0-.01.01-.018.02-.018h.054a.03.03 0 0 0 .017-.006c.003-.003.005-.01.005-.016V38.4a.02.02 0 0 1 .007-.017c.003-.003.05-.05.062-.064v-4.433c0-.013-.012-.012-.012-.012h-.018c-.016 0-.018-.013-.018-.03v-.086c0-.026 0-.08-.01-.098-.01-.014-.008-.033.02-.033h.037c.032 0 .038-.04.024-.052a.41.41 0 0 1-.124-.28c0-.025 0-.05-.025-.05h-.052c-.01 0-.016-.006-.016-.017v-.19h-.348c-.048 0-.05-.045-.05-.045l-.118-.65c-.072-.113-.194-.097-.194-.097h.003-.02l-.11-.404s-.015-.037.028-.045c.015-.005 7.897-1.698 7.897-1.698l7.9 1.697c.044.007.03.044.03.044l-.11.404h-.02.002s-.132-.018-.2.11l-.118.65s-.004.032-.044.032h-.35zm-1.235 0v.19c0 .012.01.02.02.02h.05c.024 0 .026.023.026.047 0 .03.013.186.122.28.016.014.01.052-.023.052h-.037c-.027 0-.028.018-.02.032.01.018.013.072.013.097v.086c0 .016.002.03.018.03h.02s.01-.002.01.01v4.433a1.86 1.86 0 0 1-.064.063c-.003.004-.007.01-.007.016v.074c0 .006-.002.013-.006.016-.002.004-.008.006-.016.006h-.055c-.01 0-.02.01-.02.018v.112h-1.413v-.112c0-.01-.008-.018-.016-.018h-.055c-.007 0-.014-.002-.017-.006-.004-.003-.006-.01-.006-.016V38.4c0-.006 0-.01-.007-.016a1.536 1.536 0 0 0-.064-.065v-4.433c0-.013.014-.012.014-.012h.016c.015 0 .017-.013.017-.03v-.086a.31.31 0 0 1 .015-.098c.007-.014.004-.033-.022-.033h-.036c-.034 0-.038-.04-.023-.052.112-.09.123-.247.123-.278 0-.027 0-.05.027-.05h.052a.017.017 0 0 0 .017-.02v-.19h1.35zm-2.587 0v.19c0 .012.007.02.017.02h.052c.023 0 .025.023.025.047 0 .03.013.186.122.28.014.014.008.052-.023.052h-.036c-.028 0-.03.018-.023.032a.258.258 0 0 1 .013.097v.086c0 .016.003.03.02.03h.016s.012-.002.012.01a.08.08 0 0 0 .002.02v4.413l-.066.063a.023.023 0 0 0-.006.016v.074c0 .006 0 .013-.006.016-.003.004-.01.006-.016.006H66.1c-.01 0-.016.01-.016.018v.112h-1.416v-.112c0-.01-.008-.018-.017-.018h-.054c-.008 0-.015-.002-.018-.006a.032.032 0 0 1-.005-.016V38.4c0-.006 0-.01-.006-.016-.007-.007-.044-.046-.065-.065v-4.433c0-.013.013-.012.013-.012h.014c.018 0 .018-.013.018-.03v-.086a.29.29 0 0 1 .015-.098c.007-.014.007-.033-.02-.033h-.038c-.034 0-.04-.04-.02-.052.108-.09.118-.247.118-.278 0-.027 0-.05.028-.05h.052c.01 0 .016-.008.016-.02v-.19h1.355zm-2.59 0v.19c0 .012.007.02.018.02h.053c.022 0 .024.023.024.047 0 .03.014.186.123.28.015.014.01.052-.022.052h-.037c-.028 0-.03.018-.02.032.01.018.012.072.012.097v.086c0 .016.002.03.016.03h.02s.013-.002.013.01v4.433a1.72 1.72 0 0 1-.065.063.02.02 0 0 0-.007.016v.074c0 .006 0 .013-.004.016a.027.027 0 0 1-.017.006h-.055c-.01 0-.018.01-.018.018v.112H62.08v-.112c0-.01-.01-.018-.018-.018h-.056a.026.026 0 0 1-.017-.006c-.004-.003-.005-.01-.005-.016V38.4c0-.006-.002-.01-.007-.016a3.692 3.692 0 0 1-.064-.065v-4.415-.018c0-.013.01-.012.01-.012h.02c.013 0 .015-.013.015-.03v-.086a.29.29 0 0 1 .014-.098c.008-.014.005-.033-.022-.033h-.035c-.035 0-.04-.04-.024-.052.11-.09.122-.247.122-.278 0-.027-.002-.05.026-.05h.053c.01 0 .017-.008.017-.02v-.19h1.353zm-2.587 0v.19c0 .012.005.02.015.02h.052c.024 0 .026.023.026.047 0 .03.014.186.123.28.017.014.01.052-.022.052h-.036c-.03 0-.03.018-.022.032a.29.29 0 0 1 .013.097v.086c0 .016 0 .03.018.03h.02s.01-.002.01.01v4.433c-.01.012-.06.06-.064.063A.026.026 0 0 0 61 38.4v.074c0 .006 0 .013-.005.016a.03.03 0 0 1-.018.006h-.055c-.01 0-.017.01-.017.018v.112H59.49v-.112c0-.01-.008-.018-.016-.018h-.057a.022.022 0 0 1-.015-.006c-.005-.003-.006-.01-.006-.016V38.4c0-.006-.002-.01-.007-.016l-.067-.065v-4.433c0-.013.013-.012.013-.012h.015c.02 0 .02-.013.02-.03v-.086a.29.29 0 0 1 .014-.098c.01-.014.007-.033-.02-.033h-.038c-.034 0-.038-.04-.022-.052.11-.09.122-.247.122-.278 0-.027-.002-.05.026-.05h.05c.01 0 .02-.008.02-.02v-.19h1.354zm-2.59 0v.19c0 .012.007.02.017.02h.05c.025 0 .026.023.026.047 0 .03.014.186.123.28.015.014.01.052-.024.052h-.038c-.028 0-.03.018-.02.032a.29.29 0 0 1 .01.097v.086c0 .016.003.03.02.03h.017s.012-.002.012.01v4.433l-.064.063a.02.02 0 0 0-.007.016v.074c0 .006 0 .013-.005.016-.002.004-.01.006-.017.006h-.054c-.01 0-.018.01-.018.018v.112H56.9v-.112c0-.01-.006-.018-.016-.018h-.056c-.006 0-.013-.002-.016-.006-.005-.003-.006-.01-.006-.016V38.4c0-.006 0-.01-.006-.016l-.064-.065v-4.433c0-.013.01-.012.01-.012h.016c.017 0 .02-.013.02-.03v-.086c0-.026.003-.08.015-.098.006-.014.005-.033-.022-.033h-.037c-.035 0-.038-.04-.023-.052.11-.09.12-.247.12-.278 0-.027 0-.05.03-.05h.05c.01 0 .017-.008.017-.02v-.19h1.354zM0 64h79.183c-.58-.436-1.163-.872-1.67-1.38-4.505-4.36-4.578-9.444-4.723-14.24V21.36h14.456v28.33c0 1.962.073 3.924 1.67 5.45 1.163 1.234 2.907 1.67 4.578 1.67 2.252 0 3.777-.872 4.576-1.598 1.67-1.598 1.744-3.632 1.744-5.52V21.357h14.53v24.19c0 5.23 0 11.987-5.377 17.072-.508.508-1.09.944-1.67 1.38h21.647c-6.392-4.577-9.37-12.204-9.37-19.614 0-12.204 8.208-24.627 23.61-24.627 6.9 0 13.51 2.47 18.305 7.336 1.96 1.962 2.832 3.56 3.777 5.304l-11.987 5.956c-1.162-2.687-3.34-7.555-9.443-7.555-3.197 0-5.158 1.454-6.103 2.47-3.414 3.27-3.414 8.428-3.414 10.244 0 6.756 2.543 13.15 9.59 13.15 6.683 0 8.717-5.885 9.225-7.484l12.277 5.885c-1.162 2.18-2.252 4.213-4.43 6.392a19.743 19.743 0 0 1-3.052 2.47h13.294V21.285h14.383v33.562h18.67V64H218V0H0v64zm66.46-35.427h-.122c-.033 0-.032-.027-.032-.027v-.132c0-.035-.033-.035-.033-.035h-.12c-.035 0-.033-.03-.033-.03v-.124s0-.027-.03-.027h-.074a.056.056 0 0 1-.054-.057c-.004-.168.054-1.352-.572-2.21-.492-.735-1.17-1.11-1.545-1.284-.007-.16-.234-.22-.333-.255-.053-.018-.098-.04-.098-.086l-.002-.055c0-.05.046-.07.114-.068.02 0 .037-.017.037-.03v-.145c0-.02-.018-.043-.048-.043l-.135-.002c-.033 0-.048-.03-.048-.047v-.07c0-.044-.033-.067-.058-.08v-.883c0-.03.022-.026.042-.026H63.33c.01 0 .02-.01.02-.022v-.084a.02.02 0 0 0-.02-.02h-.04c-.015-.008-.025-.026-.025-.066 0-.04.012-.06.03-.063h.034c.01 0 .02-.01.02-.02v-.087c0-.01-.01-.02-.02-.02h-.047a.105.105 0 0 1-.054-.028c-.15-.12-.303-.29-.303-.316v-.032a.06.06 0 0 0-.06-.054c-.04 0-.034-.042-.013-.042.015 0 .018-.003.018-.023v-.057c0-.026-.077-.133-.077-.133h-.005s-.08.107-.08.133v.057c0 .02.007.023.02.023.02 0 .027.042-.01.042a.06.06 0 0 0-.06.054c0 .017-.002.018-.002.032 0 .026-.152.197-.303.316a.105.105 0 0 1-.053.027h-.046c-.01 0-.02.01-.02.02v.087c0 .01.01.02.02.02h.035c.017.004.03.023.03.064 0 .04-.01.058-.024.065h-.04a.02.02 0 0 0-.02.02v.085c0 .012.01.022.02.022H62.27c.018 0 .042-.003.042.027v.884c-.025.013-.06.036-.06.08v.07c0 .02-.014.048-.047.048h-.135c-.03 0-.05.024-.05.044v.144c0 .014.017.032.037.03.07 0 .115.02.115.07v.053c0 .046-.048.067-.1.085-.098.034-.325.094-.33.254-.377.173-1.057.548-1.546 1.283-.627.858-.568 2.042-.574 2.21 0 .035-.026.056-.053.056h-.074c-.03 0-.03.026-.03.026v.123s0 .03-.032.03h-.123s-.03 0-.03.034v.132s0 .027-.035.027h-.123s-.034 0-.034.035v.144c0 .015.01.018.02.02.038.005.113.04.113.12 0 .14.086.154.12.154v.515c0 .12-.093.168-.146.18-.01.003-.026.015-.026.03v.53l3.622-.798h.005l3.62.8v-.532c0-.015-.015-.027-.026-.03-.054-.012-.146-.06-.146-.18v-.514c.034 0 .12-.014.12-.154 0-.08.075-.115.11-.12.013-.002.023-.005.023-.02v-.144c0-.035-.036-.035-.036-.035z"
  fill="#6F6F6F" fill-rule="evenodd" />
</svg>