// Jest Snapshot v1, https://goo.gl/fbAQLP

exports[`Header component renders header snaps 1`] = `
<DocumentFragment>
  <header
    class="header"
  >
    <a
      class="header__home"
      href="/"
    >
      <h2>
        Athimannil
      </h2>
    </a>
    <input
      class="hidden"
      id="checkbox"
      type="checkbox"
    />
    <label
      class="menu-icon"
      for="checkbox"
    >
      <span
        class="menu-line"
      />
      <span
        class="menu-line"
      />
      <span
        class="menu-line"
      />
    </label>
    <nav
      class="header__nav"
    >
      <a
        class="header__nav-link"
        href="/"
      >
        home
      </a>
      <a
        class="header__nav-link"
        href="/about-me"
      >
        about me
      </a>
      <a
        class="header__nav-link"
        href="/portfolio"
      >
        portfolio
      </a>
      <a
        class="header__nav-link"
        href="/resume"
      >
        cv
      </a>
      <a
        class="header__nav-link"
        href="/contact"
      >
        contact
      </a>
      <a
        class="header__nav-link"
        href="/"
      >
        HOME
      </a>
    </nav>
  </header>
</DocumentFragment>
`;
